[
    {
        "name": "Sekretaris Jenderal",
        "singkatan": "Sekjen",
        "position": [
            {
                "no": 1,
                "nama": "",
                "nbv": "",
                "kuadran": ""
            },
            {
                "no": 2,
                "nama": "",
                "nbv": "",
                "kuadran": ""
            },
            {
                "no": 3,
                "nama": "",
                "nbv": "",
                "kuadran": ""
            }
        ],
        "children": [
            {
            "name": "Inspektur",
            "singkatan": "Inspektur",
            "position": [
                    {
                        "no": 1,
                        "nama": "",
                        "nbv": "",
                        "kuadran": ""
                    },
                    {
                        "no": 2,
                        "nama": "",
                        "nbv": "",
                        "kuadran": ""
                    },
                    {
                        "no": 3,
                        "nama": "",
                        "nbv": "",
                        "kuadran": ""
                    }
                ]
            },
            {
            "name": "Kepala Biro Perencanaan Dan Keuangan",
            "singkatan": "Biro Renkeu",
            "position": [
                    {
                        "no": 1,
                        "nama": "",
                        "nbv": "",
                        "kuadran": ""
                    },
                    {
                        "no": 2,
                        "nama": "",
                        "nbv": "",
                        "kuadran": ""
                    },
                    {
                        "no": 3,
                        "nama": "",
                        "nbv": "",
                        "kuadran": ""
                    }
                ]
            
            },
            {
            "name": "Kepala Biro Sumber Daya Manusia Dan Organisasi",
            "singkatan": "Biro SDMO",
            "position": [
                    {
                        "no": 1,
                        "nama": "",
                        "nbv": "",
                        "kuadran": ""
                    },
                    {
                        "no": 2,
                        "nama": "",
                        "nbv": "",
                        "kuadran": ""
                    },
                    {
                        "no": 3,
                        "nama": "",
                        "nbv": "",
                        "kuadran": ""
                    }
                ]
            
            },
            {
            "name": "Kepala Biro Hukum Dan Administrasi Kepaniteraan",
            "singkatan": "Biro HAK",
            "position": [
                    {
                        "no": 1,
                        "nama": "",
                        "nbv": "",
                        "kuadran": ""
                    },
                    {
                        "no": 2,
                        "nama": "",
                        "nbv": "",
                        "kuadran": ""
                    },
                    {
                        "no": 3,
                        "nama": "",
                        "nbv": "",
                        "kuadran": ""
                    }
                ]
            
            },
            {
            "name": "Kepala Biro Hubungan Masyarakat Dan Protokol",
            "singkatan": "Biro HP",
            "position": [
                    {
                        "no": 1,
                        "nama": "",
                        "nbv": "",
                        "kuadran": ""
                    },
                    {
                        "no": 2,
                        "nama": "",
                        "nbv": "",
                        "kuadran": ""
                    },
                    {
                        "no": 3,
                        "nama": "",
                        "nbv": "",
                        "kuadran": ""
                    }
                ]
            
            },
            {
            "name": "Kepala Biro Umum",
            "singkatan": "Biro Umum",
            "position": [
                    {
                        "no": 1,
                        "nama": "",
                        "nbv": "",
                        "kuadran": ""
                    },
                    {
                        "no": 2,
                        "nama": "",
                        "nbv": "",
                        "kuadran": ""
                    },
                    {
                        "no": 3,
                        "nama": "",
                        "nbv": "",
                        "kuadran": ""
                    }
                ]
            
            },
            {
            "name": "Kepala Pusat Penelitian dan Pengkajian Perkara, Dan Pengelolaan Perpustakaan",
            "singkatan": "Puslitka",
            "position": [
                    {
                        "no": 1,
                        "nama": "",
                        "nbv": "",
                        "kuadran": ""
                    },
                    {
                        "no": 2,
                        "nama": "",
                        "nbv": "",
                        "kuadran": ""
                    },
                    {
                        "no": 3,
                        "nama": "",
                        "nbv": "",
                        "kuadran": ""
                    }
                ]
            
            },
            {
            "name": "Kepala Pusat Teknologi Informasi dan Komunikasi",
            "singkatan": "Pustik",
            "position": [
                    {
                        "no": 1,
                        "nama": "",
                        "nbv": "",
                        "kuadran": ""
                    },
                    {
                        "no": 2,
                        "nama": "",
                        "nbv": "",
                        "kuadran": ""
                    },
                    {
                        "no": 3,
                        "nama": "",
                        "nbv": "",
                        "kuadran": ""
                    }
                ]
            
            },
            {
            "name": "Kepala Pusat Pendidikan Pancasila dan Konstitusi",
            "singkatan": "Pusdik",
            "position": [
                    {
                        "no": 1,
                        "nama": "",
                        "nbv": "",
                        "kuadran": ""
                    },
                    {
                        "no": 2,
                        "nama": "",
                        "nbv": "",
                        "kuadran": ""
                    },
                    {
                        "no": 3,
                        "nama": "",
                        "nbv": "",
                        "kuadran": ""
                    }
                ]
            
            }
        ]
    }
  ]
  